<svg width="204" height="204" viewBox="0 0 204 204" fill="none" xmlns="http://www.w3.org/2000/svg">
<rect width="204" height="204" fill="white"/>
<path d="M70.5302 96.8192V115.586L51.7629 96.8192L61.1466 87.4355L70.5302 96.8192Z" fill="#047B40"/>
<path d="M70.5303 115.586V124.969H56.4548V101.51L70.5303 115.586Z" fill="#0AA759"/>
<path d="M89.2976 96.8192L70.5304 115.586V96.8192L79.914 87.4355L89.2976 96.8192Z" fill="#0AA759"/>
<path d="M84.6058 101.51V124.969H70.5304V115.586L84.6058 101.51Z" fill="#047B40"/>
<path d="M61.1467 124.969H56.4548V143.737H61.1467V124.969Z" fill="#CCDDFF"/>
<path d="M51.7629 143.737L61.1466 134.354V143.737H51.7629Z" fill="#037B40"/>
<path d="M84.6056 124.969H79.9138V143.737H84.6056V124.969Z" fill="#CCDDFF"/>
<path d="M61.1467 124.969L56.4548 129.661V124.969H61.1467Z" fill="#037B40"/>
<path d="M84.6056 129.661L79.9138 124.969H84.6056V129.661Z" fill="#047B40"/>
<path d="M79.9138 134.354L89.2974 143.737H79.9138V134.354Z" fill="#037B40"/>
<path d="M56.458 101.507L39.0638 120.265L39.0638 110.882L51.7662 96.8153L56.458 101.507Z" fill="#CCDDFF"/>
<path d="M84.6056 101.499L102 120.257L102 110.873L89.2974 96.807L84.6056 101.499Z" fill="#CCDDFF"/>
<path d="M79.914 82.743L70.5304 92.1266V73.3594L79.914 82.743Z" fill="#F4F4F4"/>
<path d="M70.5301 73.3594V92.1266L61.1465 82.743L70.5301 73.3594Z" fill="#CCDDFF"/>
<path d="M133.466 96.8192V115.586L114.699 96.8192L124.083 87.4355L133.466 96.8192Z" fill="#DD5F00"/>
<path d="M133.466 115.586V124.969H119.391V101.51L133.466 115.586Z" fill="#FFBB33"/>
<path d="M152.233 96.8192L133.466 115.586V96.8192L142.85 87.4355L152.233 96.8192Z" fill="#FFBB33"/>
<path d="M147.542 101.51V124.969H133.466V115.586L147.542 101.51Z" fill="#DD5F00"/>
<path d="M124.083 124.969H119.391V143.737H124.083V124.969Z" fill="#CCDDFF"/>
<path d="M114.699 143.737L124.083 134.354V143.737H114.699Z" fill="#DD5F00"/>
<path d="M147.542 124.969H142.85V143.737H147.542V124.969Z" fill="#CCDDFF"/>
<path d="M124.083 124.969L119.391 129.661V124.969H124.083Z" fill="#DD5F00"/>
<path d="M147.542 129.661L142.85 124.969H147.542V129.661Z" fill="#FFBB33"/>
<path d="M142.85 134.354L152.233 143.737H142.85V134.354Z" fill="#FFBB33"/>
<path d="M119.394 101.507L102 120.265L102 110.882L114.702 96.8153L119.394 101.507Z" fill="#CCDDFF"/>
<path d="M147.542 101.499L164.936 120.257L164.936 110.873L152.234 96.807L147.542 101.499Z" fill="#CCDDFF"/>
<path d="M142.85 82.743L133.466 92.1266V73.3594L142.85 82.743Z" fill="#F4F4F4"/>
<path d="M133.466 73.3594V92.1266L124.083 82.743L133.466 73.3594Z" fill="#CCDDFF"/>
</svg>
