<svg width="17" height="17" viewBox="0 0 17 17" fill="none" xmlns="http://www.w3.org/2000/svg">
<g clip-path="url(#clip0)">
<path d="M6.49155 5.64213L9.28759 8.5757L6.36012 11.3781L7.22095 12.2793L11.0559 8.61622L7.39276 4.7813L6.49155 5.64213Z" fill="#494C50"/>
</g>
<defs>
<clipPath id="clip0">
<rect width="15" height="15" fill="white" transform="translate(15.8828 16.2285) rotate(-178.687)"/>
</clipPath>
</defs>
</svg>
